<svg width="25" height="23" viewBox="0 0 25 23" fill="none" xmlns="http://www.w3.org/2000/svg">
<path d="M24.7914 2.07625L17.2914 21.4512C17.2172 21.6431 17.0968 21.8138 16.9408 21.948C16.7849 22.0822 16.5982 22.1758 16.3974 22.2206C16.1966 22.2653 15.9879 22.2598 15.7897 22.2046C15.5915 22.1493 15.41 22.046 15.2614 21.9037L11.0339 17.86L8.44137 20.4513C8.35389 20.5385 8.24254 20.5978 8.12136 20.6217C8.00019 20.6457 7.87464 20.6332 7.76055 20.5859C7.64647 20.5385 7.54897 20.4584 7.48037 20.3557C7.41177 20.253 7.37515 20.1323 7.37512 20.0088V14.36L0.886369 8.15375C0.725374 7.99972 0.608474 7.80546 0.547772 7.59108C0.48707 7.3767 0.484773 7.14999 0.541119 6.93442C0.597464 6.71886 0.710405 6.52227 0.868247 6.36501C1.02609 6.20775 1.22309 6.09554 1.43887 6.04L23.3139 0.415C23.5363 0.35803 23.7701 0.363406 23.9896 0.430539C24.2091 0.497672 24.4059 0.623968 24.5584 0.795576C24.7109 0.967184 24.8132 1.17747 24.8541 1.40338C24.895 1.62929 24.8728 1.86209 24.7901 2.07625H24.7914ZM21.7501 3.50125L8.04012 12.44L10.2089 14.515L21.7501 3.5V3.50125Z" fill="#145173"/>
</svg>
